data_cleaning
…
# Select the rows of interest
cleaned_pockets_data <-
  cleaned_pockets_data |>
  select(
    brand,
    style,
    men_women,
    price
  ) 

cleaned_pockets_data

# A tibble: 80 × 4
   brand        style    men_women price
   <chr>        <chr>    <chr>     <dbl>
 1 Arizona      skinny   women      42  
 2 Arizona      straight women      42  
 3 Ralph Lauren skinny   women      89.5
 4 Ralph Lauren straight women      89.5
 5 Uniqlo       skinny   women      39.9
 6 Uniqlo       straight women      39.9
 7 Calvin Klein skinny   women      79.5
 8 Calvin Klein straight women      69.5
 9 Lucky        skinny   women      99  
10 Lucky        straight women      79.5
# ℹ 70 more rows
…
